…
Теперь можно выполнить первый вызов к Facebook Marketing API. Например вы можете запросить список рекламным аккаунтам к которым у вас есть доступ с помощью функции `fbGetAdAccounts()`.

```{r}
fbGetAdAccounts()
```
```
Token load from C:/facebook/credentials/.rfb_auth.rds
# A tibble: 420 x 10
   id    name  account_id account_status amount_spent balance business_name currency owner
   <chr> <chr> <chr>               <int> <chr>        <chr>   <chr>         <chr>    <chr>
 1 act_~ 4772~ 47725506                1 9177567      2272    DEMOBAZA Ltd. EUR      7445~
 2 act_~ capp~ 14794670                1 2787098      0       ""            AED      2642~
 3 act_~ Rual~ 67398193                1 3681338      4825    Rual Travel ~ USD      2357~
 4 act_~ Plas~ 66869331                1 6355231      3069    Plasico Comp~ USD      8519~
 5 act_~ Maxi~ 77890760                1 2101480      426     Maxi.az       USD      1910~
 6 act_~ heal~ 171226248               1 3653879      0       Нетпик ЕООД   USD      3689~
 7 act_~ Tric~ 363293104               1 81285        0       ""            USD      5031~
 8 act_~ Spor~ 361373151               1 1424069      2053    Соларшоп ЕООД EUR      2201~
 9 act_~ Netp~ 262115113               1 7393426      2615    Netpeak       USD      9055~
10 act_~ Nata~ 362381897               1 6207085      6290    ""            USD      1950~
# ... with 410 more rows, and 1 more variable: user_role <chr>
```
…
